…
``` r
zori_zip =
  left_join(zori,zip_codes, by = c("zip_code", "county_name")) |>
  relocate(date,county_name, neighborhood,rent_price,zip_code)

inner_join(zori,zip_codes, by = "zip_code", "county")
```

    ## Warning in inner_join(zori, zip_codes, by = "zip_code", "county"): Detected an unexpected many-to-many relationship between `x` and `y`.
    ## ℹ Row 4757 of `x` matches multiple rows in `y`.
    ## ℹ Row 256 of `y` matches multiple rows in `x`.
    ## ℹ If a many-to-many relationship is expected, set `relationship =
    ##   "many-to-many"` to silence this warning.

    ## # A tibble: 17,516 × 18
    ##    region_id size_rank zip_code region_type state_name state city     metro     
    ##        <int>     <int>    <int> <chr>       <chr>      <chr> <chr>    <chr>     
    ##  1     62080         4    11368 zip         NY         NY    New York New York-…
    ##  2     62080         4    11368 zip         NY         NY    New York New York-…
    ##  3     62080         4    11368 zip         NY         NY    New York New York-…
    ##  4     62080         4    11368 zip         NY         NY    New York New York-…
    ##  5     62080         4    11368 zip         NY         NY    New York New York-…
    ##  6     62080         4    11368 zip         NY         NY    New York New York-…
    ##  7     62080         4    11368 zip         NY         NY    New York New York-…
    ##  8     62080         4    11368 zip         NY         NY    New York New York-…
    ##  9     62080         4    11368 zip         NY         NY    New York New York-…
    ## 10     62080         4    11368 zip         NY         NY    New York New York-…
    ## # ℹ 17,506 more rows
    ## # ℹ 10 more variables: county_name.x <chr>, date <chr>, rent_price <dbl>,
    ## #   neighborhood <chr>, county_name.y <chr>, county_code <int>, county <chr>,
    ## #   state_fips <int>, county_fips <int>, file_date <chr>
…
